[
    {
        "Heat": 14.304, 
        "abundance (mg/kg)": 1400, 
        "boiling point (k)": 20.28, 
        "boiling point (\u00b0C)": -253.0, 
        "density (g/cm3)": 0.09, 
        "discovered": 1776, 
        "earth crust (%)": 0.14, 
        "electrons": "1s1", 
        "group": 1, 
        "instock": true, 
        "ionizatin energy (eV)": 13.5984, 
        "melting point (k)": 14.01, 
        "melting point (\u00b0C)": -259.0, 
        "name": "Hydrogen", 
        "neg": 2.2, 
        "number": 1, 
        "origin of name": "the Greek 'hydro' and 'genes' meaning water-forming", 
        "row": 0, 
        "snippet": "It is the lightest element and its monatomic form (H1) is the most abundant chemical substance, constituting roughly 75% of the Universe's baryonic mass. Non-remnant stars are mainly composed of hydrogen in its plasma state.", 
        "symbol": "H", 
        "weight": 1.0079
    }, 
    {
        "Heat": 5.193, 
        "abundance (mg/kg)": 0.008, 
        "boiling point (k)": 4.22, 
        "boiling point (\u00b0C)": -269.0, 
        "density (g/cm3)": 0.18, 
        "discovered": 1895, 
        "earth crust (%)": "", 
        "electrons": "1s2", 
        "group": 18, 
        "instock": true, 
        "ionizatin energy (eV)": 24.5874, 
        "melting point (k)": 0.956, 
        "melting point (\u00b0C)": -272.0, 
        "name": "Helium", 
        "neg": "\u2013", 
        "number": 2, 
        "origin of name": "the Greek, 'helios' meaning sun", 
        "row": 1, 
        "snippet": "It is a colorless, odorless, tasteless, non-toxic, inert, monatomic gas that heads the noble gas group in the periodic table. Its boiling and melting points are the lowest among the elements and it exists only as a gas except in extreme conditions.", 
        "symbol": "He", 
        "weight": 4.0026
    }, 
    {
        "Heat": 3.582, 
        "abundance (mg/kg)": 20, 
        "boiling point (k)": 1560, 
        "boiling point (\u00b0C)": 1347.0, 
        "density (g/cm3)": 0.53, 
        "discovered": 1817, 
        "earth crust (%)": "", 
        "electrons": "[He] 2s1", 
        "group": 1, 
        "instock": true, 
        "ionizatin energy (eV)": 5.3917, 
        "melting point (k)": 453.69, 
        "melting point (\u00b0C)": 180.0, 
        "name": "Lithium", 
        "neg": 0.98, 
        "number": 3, 
        "origin of name": "the Greek 'lithos' meaning stone", 
        "row": 2, 
        "snippet": "Its compounds have several industrial applications, including heat-resistant glass and ceramics, high strength-to-weight alloys used in aircraft, lithium batteries and lithium-ion batteries. These uses consume more than half of lithium production.", 
        "symbol": "Li", 
        "weight": 6.941
    }, 
    {
        "Heat": 1.825, 
        "abundance (mg/kg)": 2.8, 
        "boiling point (k)": 2742, 
        "boiling point (\u00b0C)": 2970.0, 
        "density (g/cm3)": 1.85, 
        "discovered": 1797, 
        "earth crust (%)": "", 
        "electrons": "[He] 2s2", 
        "group": 2, 
        "instock": false, 
        "ionizatin energy (eV)": 9.3227, 
        "melting point (k)": 1560, 
        "melting point (\u00b0C)": 1278.0, 
        "name": "Beryllium", 
        "neg": 1.57, 
        "number": 4, 
        "origin of name": "the Greek name for beryl, 'beryllo'", 
        "row": 3, 
        "snippet": "not in stock", 
        "symbol": "Be", 
        "weight": 9.0122
    }, 
    {
        "Heat": 1.026, 
        "abundance (mg/kg)": 10, 
        "boiling point (k)": 4200, 
        "boiling point (\u00b0C)": 2550.0, 
        "density (g/cm3)": 2.34, 
        "discovered": 1808, 
        "earth crust (%)": "", 
        "electrons": "[He] 2s2 2p1", 
        "group": 13, 
        "instock": false, 
        "ionizatin energy (eV)": 8.298, 
        "melting point (k)": 2349, 
        "melting point (\u00b0C)": 2300.0, 
        "name": "Boron", 
        "neg": 2.04, 
        "number": 5, 
        "origin of name": "the Arabic 'buraq', which was the name for borax", 
        "row": 4, 
        "snippet": "not in stock", 
        "symbol": "B", 
        "weight": 10.811
    }, 
    {
        "Heat": 0.709, 
        "abundance (mg/kg)": 200, 
        "boiling point (k)": 4300, 
        "boiling point (\u00b0C)": 4827.0, 
        "density (g/cm3)": 2.26, 
        "discovered": " ancient", 
        "earth crust (%)": 0.094, 
        "electrons": "[He] 2s2 2p2", 
        "group": 14, 
        "instock": false, 
        "ionizatin energy (eV)": 11.2603, 
        "melting point (k)": 3800, 
        "melting point (\u00b0C)": 3500.0, 
        "name": "Carbon", 
        "neg": 2.55, 
        "number": 6, 
        "origin of name": "the Latin \u2018carbo\u2019, meaning charcoal", 
        "row": 5, 
        "snippet": "not in stock", 
        "symbol": "C", 
        "weight": 12.0107
    }, 
    {
        "Heat": 1.04, 
        "abundance (mg/kg)": 19, 
        "boiling point (k)": 77.36, 
        "boiling point (\u00b0C)": -196.0, 
        "density (g/cm3)": 1.25, 
        "discovered": 1772, 
        "earth crust (%)": "", 
        "electrons": "[He] 2s2 2p3", 
        "group": 15, 
        "instock": false, 
        "ionizatin energy (eV)": 14.5341, 
        "melting point (k)": 63.15, 
        "melting point (\u00b0C)": -210.0, 
        "name": "Nitrogen", 
        "neg": 3.04, 
        "number": 7, 
        "origin of name": "the Greek 'nitron' and 'genes' meaning nitre-forming", 
        "row": 6, 
        "snippet": "not in stock", 
        "symbol": "N", 
        "weight": 14.0067
    }, 
    {
        "Heat": 0.918, 
        "abundance (mg/kg)": 461000, 
        "boiling point (k)": 90.2, 
        "boiling point (\u00b0C)": -183.0, 
        "density (g/cm3)": 1.43, 
        "discovered": 1774, 
        "earth crust (%)": 46.71, 
        "electrons": "[He] 2s2 2p4", 
        "group": 16, 
        "instock": false, 
        "ionizatin energy (eV)": 13.6181, 
        "melting point (k)": 54.36, 
        "melting point (\u00b0C)": -218.0, 
        "name": "Oxygen", 
        "neg": 3.44, 
        "number": 8, 
        "origin of name": "the Greek 'oxy' and 'genes' meaning acid-forming", 
        "row": 7, 
        "snippet": "not in stock", 
        "symbol": "O", 
        "weight": 15.9994
    }, 
    {
        "Heat": 0.824, 
        "abundance (mg/kg)": 585, 
        "boiling point (k)": 85.03, 
        "boiling point (\u00b0C)": -188.0, 
        "density (g/cm3)": 1.7, 
        "discovered": 1886, 
        "earth crust (%)": 0.028999999999999998, 
        "electrons": "[He] 2s2 2p5", 
        "group": 17, 
        "instock": false, 
        "ionizatin energy (eV)": 17.4228, 
        "melting point (k)": 53.53, 
        "melting point (\u00b0C)": -220.0, 
        "name": "Fluorine", 
        "neg": 3.98, 
        "number": 9, 
        "origin of name": "the Latin 'fluere', meaning to flow", 
        "row": 8, 
        "snippet": "not in stock", 
        "symbol": "F", 
        "weight": 18.9984
    }, 
    {
        "Heat": 1.03, 
        "abundance (mg/kg)": 0.005, 
        "boiling point (k)": 27.07, 
        "boiling point (\u00b0C)": -246.0, 
        "density (g/cm3)": 0.9, 
        "discovered": 1898, 
        "earth crust (%)": "", 
        "electrons": "[He] 2s2 2p6", 
        "group": 18, 
        "instock": false, 
        "ionizatin energy (eV)": 21.5645, 
        "melting point (k)": 24.56, 
        "melting point (\u00b0C)": -249.0, 
        "name": "Neon", 
        "neg": "\u2013", 
        "number": 10, 
        "origin of name": "the Greek 'neos', meaning new", 
        "row": 9, 
        "snippet": "not in stock", 
        "symbol": "Ne", 
        "weight": 20.1797
    }, 
    {
        "Heat": 1.228, 
        "abundance (mg/kg)": 23600, 
        "boiling point (k)": 1156, 
        "boiling point (\u00b0C)": 883.0, 
        "density (g/cm3)": 0.97, 
        "discovered": 1807, 
        "earth crust (%)": 2.75, 
        "electrons": "[Ne] 3s1", 
        "group": 1, 
        "instock": false, 
        "ionizatin energy (eV)": 5.1391, 
        "melting point (k)": 370.87, 
        "melting point (\u00b0C)": 98.0, 
        "name": "Sodium", 
        "neg": 0.93, 
        "number": 11, 
        "origin of name": "the English word soda (natrium in Latin)[2]", 
        "row": 10, 
        "snippet": "not in stock", 
        "symbol": "Na", 
        "weight": 22.9897
    }, 
    {
        "Heat": 1.023, 
        "abundance (mg/kg)": 23300, 
        "boiling point (k)": 1363, 
        "boiling point (\u00b0C)": 1090.0, 
        "density (g/cm3)": 1.74, 
        "discovered": 1755, 
        "earth crust (%)": 2.08, 
        "electrons": "[Ne] 3s2", 
        "group": 2, 
        "instock": false, 
        "ionizatin energy (eV)": 7.6462, 
        "melting point (k)": 923, 
        "melting point (\u00b0C)": 639.0, 
        "name": "Magnesium", 
        "neg": 1.31, 
        "number": 12, 
        "origin of name": "Magnesia, a district of Eastern Thessaly in Greece", 
        "row": 11, 
        "snippet": "not in stock", 
        "symbol": "Mg", 
        "weight": 24.305
    }, 
    {
        "Heat": 0.897, 
        "abundance (mg/kg)": 82300, 
        "boiling point (k)": 2792, 
        "boiling point (\u00b0C)": 2467.0, 
        "density (g/cm3)": 2.7, 
        "discovered": 1825, 
        "earth crust (%)": 8.07, 
        "electrons": "[Ne] 3s2 3p1", 
        "group": 13, 
        "instock": false, 
        "ionizatin energy (eV)": 5.9858, 
        "melting point (k)": 933.47, 
        "melting point (\u00b0C)": 660.0, 
        "name": "Aluminum", 
        "neg": 1.61, 
        "number": 13, 
        "origin of name": "the Latin name for alum, 'alumen' meaning bitter salt", 
        "row": 12, 
        "snippet": "not in stock", 
        "symbol": "Al", 
        "weight": 26.9815
    }, 
    {
        "Heat": 0.705, 
        "abundance (mg/kg)": 282000, 
        "boiling point (k)": 3538, 
        "boiling point (\u00b0C)": 2355.0, 
        "density (g/cm3)": 2.33, 
        "discovered": 1824, 
        "earth crust (%)": 27.69, 
        "electrons": "[Ne] 3s2 3p2", 
        "group": 14, 
        "instock": false, 
        "ionizatin energy (eV)": 8.1517, 
        "melting point (k)": 1687, 
        "melting point (\u00b0C)": 1410.0, 
        "name": "Silicon", 
        "neg": 1.9, 
        "number": 14, 
        "origin of name": "the Latin 'silex' or 'silicis', meaning flint", 
        "row": 13, 
        "snippet": "not in stock", 
        "symbol": "Si", 
        "weight": 28.0855
    }, 
    {
        "Heat": 0.769, 
        "abundance (mg/kg)": 1050, 
        "boiling point (k)": 550, 
        "boiling point (\u00b0C)": 280.0, 
        "density (g/cm3)": 1.82, 
        "discovered": 1669, 
        "earth crust (%)": 0.13, 
        "electrons": "[Ne] 3s2 3p3", 
        "group": 15, 
        "instock": false, 
        "ionizatin energy (eV)": 10.4867, 
        "melting point (k)": 317.3, 
        "melting point (\u00b0C)": 44.0, 
        "name": "Phosphorus", 
        "neg": 2.19, 
        "number": 15, 
        "origin of name": "the Greek 'phosphoros', meaning bringer of light", 
        "row": 14, 
        "snippet": "not in stock", 
        "symbol": "P", 
        "weight": 30.9738
    }, 
    {
        "Heat": 0.71, 
        "abundance (mg/kg)": 350, 
        "boiling point (k)": 717.87, 
        "boiling point (\u00b0C)": 445.0, 
        "density (g/cm3)": 2.07, 
        "discovered": " ancient", 
        "earth crust (%)": 0.052000000000000005, 
        "electrons": "[Ne] 3s2 3p4", 
        "group": 16, 
        "instock": false, 
        "ionizatin energy (eV)": 10.36, 
        "melting point (k)": 388.36, 
        "melting point (\u00b0C)": 113.0, 
        "name": "Sulfur", 
        "neg": 2.58, 
        "number": 16, 
        "origin of name": "Either from the Sanskrit 'sulvere', or the Latin 'sulfurium', both names for sulfur[2]", 
        "row": 15, 
        "snippet": "not in stock", 
        "symbol": "S", 
        "weight": 32.065
    }, 
    {
        "Heat": 0.479, 
        "abundance (mg/kg)": 145, 
        "boiling point (k)": 239.11, 
        "boiling point (\u00b0C)": -35.0, 
        "density (g/cm3)": 3.21, 
        "discovered": 1774, 
        "earth crust (%)": 0.045, 
        "electrons": "[Ne] 3s2 3p5", 
        "group": 17, 
        "instock": false, 
        "ionizatin energy (eV)": 12.9676, 
        "melting point (k)": 171.6, 
        "melting point (\u00b0C)": -101.0, 
        "name": "Chlorine", 
        "neg": 3.16, 
        "number": 17, 
        "origin of name": "the Greek 'chloros', meaning greenish yellow", 
        "row": 16, 
        "snippet": "not in stock", 
        "symbol": "Cl", 
        "weight": 35.453
    }, 
    {
        "Heat": 0.52, 
        "abundance (mg/kg)": 3.5, 
        "boiling point (k)": 87.3, 
        "boiling point (\u00b0C)": -186.0, 
        "density (g/cm3)": 1.78, 
        "discovered": 1894, 
        "earth crust (%)": "", 
        "electrons": "[Ne] 3s2 3p6", 
        "group": 18, 
        "instock": false, 
        "ionizatin energy (eV)": 15.7596, 
        "melting point (k)": 83.8, 
        "melting point (\u00b0C)": -189.0, 
        "name": "Argon", 
        "neg": "\u2013", 
        "number": 18, 
        "origin of name": "the Greek, 'argos', meaning idle", 
        "row": 17, 
        "snippet": "not in stock", 
        "symbol": "Ar", 
        "weight": 39.948
    }, 
    {
        "Heat": 0.757, 
        "abundance (mg/kg)": 20900, 
        "boiling point (k)": 1032, 
        "boiling point (\u00b0C)": 774.0, 
        "density (g/cm3)": 0.86, 
        "discovered": 1807, 
        "earth crust (%)": 2.58, 
        "electrons": "[Ar] 4s1", 
        "group": 1, 
        "instock": false, 
        "ionizatin energy (eV)": 4.3407, 
        "melting point (k)": 336.53, 
        "melting point (\u00b0C)": 64.0, 
        "name": "Potassium", 
        "neg": 0.82, 
        "number": 19, 
        "origin of name": "the English word potash (kalium in Latin)[2]", 
        "row": 18, 
        "snippet": "not in stock", 
        "symbol": "K", 
        "weight": 39.0983
    }, 
    {
        "Heat": 0.647, 
        "abundance (mg/kg)": 41500, 
        "boiling point (k)": 1757, 
        "boiling point (\u00b0C)": 1484.0, 
        "density (g/cm3)": 1.55, 
        "discovered": 1808, 
        "earth crust (%)": 3.65, 
        "electrons": "[Ar] 4s2", 
        "group": 2, 
        "instock": false, 
        "ionizatin energy (eV)": 6.1132, 
        "melting point (k)": 1115, 
        "melting point (\u00b0C)": 839.0, 
        "name": "Calcium", 
        "neg": 1, 
        "number": 20, 
        "origin of name": "the Latin 'calx' meaning lime", 
        "row": 19, 
        "snippet": "not in stock", 
        "symbol": "Ca", 
        "weight": 40.078
    }, 
    {
        "Heat": 0.568, 
        "abundance (mg/kg)": 22, 
        "boiling point (k)": 3109, 
        "boiling point (\u00b0C)": 2832.0, 
        "density (g/cm3)": 2.99, 
        "discovered": 1879, 
        "earth crust (%)": "", 
        "electrons": "[Ar] 3d1 4s2", 
        "group": 3, 
        "instock": false, 
        "ionizatin energy (eV)": 6.5615, 
        "melting point (k)": 1814, 
        "melting point (\u00b0C)": 1539.0, 
        "name": "Scandium", 
        "neg": 1.36, 
        "number": 21, 
        "origin of name": "Scandinavia (with the Latin name Scandia)", 
        "row": 20, 
        "snippet": "not in stock", 
        "symbol": "Sc", 
        "weight": 44.9559
    }, 
    {
        "Heat": 0.523, 
        "abundance (mg/kg)": 5650, 
        "boiling point (k)": 3560, 
        "boiling point (\u00b0C)": 3287.0, 
        "density (g/cm3)": 4.54, 
        "discovered": 1791, 
        "earth crust (%)": 0.62, 
        "electrons": "[Ar] 3d2 4s2", 
        "group": 4, 
        "instock": false, 
        "ionizatin energy (eV)": 6.8281, 
        "melting point (k)": 1941, 
        "melting point (\u00b0C)": 1660.0, 
        "name": "Titanium", 
        "neg": 1.54, 
        "number": 22, 
        "origin of name": "Titans, the sons of the Earth goddess of Greek mythology", 
        "row": 21, 
        "snippet": "not in stock", 
        "symbol": "Ti", 
        "weight": 47.867
    }, 
    {
        "Heat": 0.489, 
        "abundance (mg/kg)": 120, 
        "boiling point (k)": 3680, 
        "boiling point (\u00b0C)": 3380.0, 
        "density (g/cm3)": 6.11, 
        "discovered": 1830, 
        "earth crust (%)": "", 
        "electrons": "[Ar] 3d3 4s2", 
        "group": 5, 
        "instock": false, 
        "ionizatin energy (eV)": 6.7462, 
        "melting point (k)": 2183, 
        "melting point (\u00b0C)": 1890.0, 
        "name": "Vanadium", 
        "neg": 1.63, 
        "number": 23, 
        "origin of name": "Vanadis, an old Norse name for the Scandinavian goddess Freyja", 
        "row": 22, 
        "snippet": "not in stock", 
        "symbol": "V", 
        "weight": 50.9415
    }, 
    {
        "Heat": 0.449, 
        "abundance (mg/kg)": 102, 
        "boiling point (k)": 2944, 
        "boiling point (\u00b0C)": 2672.0, 
        "density (g/cm3)": 7.19, 
        "discovered": 1797, 
        "earth crust (%)": 0.035, 
        "electrons": "[Ar] 3d5 4s1", 
        "group": 6, 
        "instock": false, 
        "ionizatin energy (eV)": 6.7665, 
        "melting point (k)": 2180, 
        "melting point (\u00b0C)": 1857.0, 
        "name": "Chromium", 
        "neg": 1.66, 
        "number": 24, 
        "origin of name": "the Greek 'chroma', meaning colour", 
        "row": 23, 
        "snippet": "not in stock", 
        "symbol": "Cr", 
        "weight": 51.9961
    }, 
    {
        "Heat": 0.479, 
        "abundance (mg/kg)": 950, 
        "boiling point (k)": 2334, 
        "boiling point (\u00b0C)": 1962.0, 
        "density (g/cm3)": 7.43, 
        "discovered": 1774, 
        "earth crust (%)": 0.09, 
        "electrons": "[Ar] 3d5 4s2", 
        "group": 7, 
        "instock": false, 
        "ionizatin energy (eV)": 7.434, 
        "melting point (k)": 1519, 
        "melting point (\u00b0C)": 1245.0, 
        "name": "Manganese", 
        "neg": 1.55, 
        "number": 25, 
        "origin of name": "Either the Latin 'magnes', meaning magnet or from the black magnesium oxide, 'magnesia nigra'", 
        "row": 24, 
        "snippet": "not in stock", 
        "symbol": "Mn", 
        "weight": 54.938
    }, 
    {
        "Heat": 0.449, 
        "abundance (mg/kg)": 56300, 
        "boiling point (k)": 3134, 
        "boiling point (\u00b0C)": 2750.0, 
        "density (g/cm3)": 7.87, 
        "discovered": " ancient", 
        "earth crust (%)": 5.05, 
        "electrons": "[Ar] 3d6 4s2", 
        "group": 8, 
        "instock": false, 
        "ionizatin energy (eV)": 7.9024, 
        "melting point (k)": 1811, 
        "melting point (\u00b0C)": 1535.0, 
        "name": "Iron", 
        "neg": 1.83, 
        "number": 26, 
        "origin of name": "the Anglo-Saxon name iren (ferrum in Latin)", 
        "row": 25, 
        "snippet": "not in stock", 
        "symbol": "Fe", 
        "weight": 55.845
    }, 
    {
        "Heat": 0.421, 
        "abundance (mg/kg)": 25, 
        "boiling point (k)": 3200, 
        "boiling point (\u00b0C)": 2870.0, 
        "density (g/cm3)": 8.9, 
        "discovered": 1735, 
        "earth crust (%)": "", 
        "electrons": "[Ar] 3d7 4s2", 
        "group": 9, 
        "instock": false, 
        "ionizatin energy (eV)": 7.881, 
        "melting point (k)": 1768, 
        "melting point (\u00b0C)": 1495.0, 
        "name": "Cobalt", 
        "neg": 1.88, 
        "number": 27, 
        "origin of name": "the German word 'kobald', meaning goblin", 
        "row": 26, 
        "snippet": "not in stock", 
        "symbol": "Co", 
        "weight": 58.9332
    }, 
    {
        "Heat": 0.444, 
        "abundance (mg/kg)": 84, 
        "boiling point (k)": 3186, 
        "boiling point (\u00b0C)": 2732.0, 
        "density (g/cm3)": 8.9, 
        "discovered": 1751, 
        "earth crust (%)": 0.019, 
        "electrons": "[Ar] 3d8 4s2", 
        "group": 10, 
        "instock": false, 
        "ionizatin energy (eV)": 7.6398, 
        "melting point (k)": 1728, 
        "melting point (\u00b0C)": 1453.0, 
        "name": "Nickel", 
        "neg": 1.91, 
        "number": 28, 
        "origin of name": "the shortened of the German 'kupfernickel' meaning either devil's copper or St. Nicholas's copper", 
        "row": 27, 
        "snippet": "not in stock", 
        "symbol": "Ni", 
        "weight": 58.6934
    }, 
    {
        "Heat": 0.385, 
        "abundance (mg/kg)": 60, 
        "boiling point (k)": 2835, 
        "boiling point (\u00b0C)": 2567.0, 
        "density (g/cm3)": 8.96, 
        "discovered": " ancient", 
        "earth crust (%)": "", 
        "electrons": "[Ar] 3d10 4s1", 
        "group": 11, 
        "instock": false, 
        "ionizatin energy (eV)": 7.7264, 
        "melting point (k)": 1357.77, 
        "melting point (\u00b0C)": 1083.0, 
        "name": "Copper", 
        "neg": 1.9, 
        "number": 29, 
        "origin of name": "the Old English name coper in turn derived from the Latin 'Cyprium aes', meaning a metal from Cyprus", 
        "row": 28, 
        "snippet": "not in stock", 
        "symbol": "Cu", 
        "weight": 63.54600000000001
    }, 
    {
        "Heat": 0.388, 
        "abundance (mg/kg)": 70, 
        "boiling point (k)": 1180, 
        "boiling point (\u00b0C)": 907.0, 
        "density (g/cm3)": 7.13, 
        "discovered": " ancient", 
        "earth crust (%)": "", 
        "electrons": "[Ar] 3d10 4s2", 
        "group": 12, 
        "instock": false, 
        "ionizatin energy (eV)": 9.3942, 
        "melting point (k)": 692.88, 
        "melting point (\u00b0C)": 420.0, 
        "name": "Zinc", 
        "neg": 1.65, 
        "number": 30, 
        "origin of name": "the German, 'zinc', which may in turn be derived from the Persian word 'sing', meaning stone", 
        "row": 29, 
        "snippet": "not in stock", 
        "symbol": "Zn", 
        "weight": 65.39
    }, 
    {
        "Heat": 0.371, 
        "abundance (mg/kg)": 19, 
        "boiling point (k)": 2477, 
        "boiling point (\u00b0C)": 2403.0, 
        "density (g/cm3)": 5.91, 
        "discovered": 1875, 
        "earth crust (%)": "", 
        "electrons": "[Ar] 3d10 4s2 4p1", 
        "group": 13, 
        "instock": false, 
        "ionizatin energy (eV)": 5.9993, 
        "melting point (k)": 302.9146, 
        "melting point (\u00b0C)": 30.0, 
        "name": "Gallium", 
        "neg": 1.81, 
        "number": 31, 
        "origin of name": "France (with the Latin name Gallia)", 
        "row": 30, 
        "snippet": "not in stock", 
        "symbol": "Ga", 
        "weight": 69.723
    }, 
    {
        "Heat": 0.32, 
        "abundance (mg/kg)": 1.5, 
        "boiling point (k)": 3106, 
        "boiling point (\u00b0C)": 2830.0, 
        "density (g/cm3)": 5.32, 
        "discovered": 1886, 
        "earth crust (%)": "", 
        "electrons": "[Ar] 3d10 4s2 4p2", 
        "group": 14, 
        "instock": false, 
        "ionizatin energy (eV)": 7.8994, 
        "melting point (k)": 1211.4, 
        "melting point (\u00b0C)": 937.0, 
        "name": "Germanium", 
        "neg": 2.01, 
        "number": 32, 
        "origin of name": "Germany (with the Latin name Germania)", 
        "row": 31, 
        "snippet": "not in stock", 
        "symbol": "Ge", 
        "weight": 72.64
    }, 
    {
        "Heat": 0.329, 
        "abundance (mg/kg)": 1.8, 
        "boiling point (k)": 887, 
        "boiling point (\u00b0C)": 613.0, 
        "density (g/cm3)": 5.72, 
        "discovered": " ancient", 
        "earth crust (%)": "", 
        "electrons": "[Ar] 3d10 4s2 4p3", 
        "group": 15, 
        "instock": false, 
        "ionizatin energy (eV)": 9.7886, 
        "melting point (k)": "1090 7", 
        "melting point (\u00b0C)": 81.0, 
        "name": "Arsenic", 
        "neg": 2.18, 
        "number": 33, 
        "origin of name": "the Greek name 'arsenikon' for the yellow pigment orpiment", 
        "row": 32, 
        "snippet": "not in stock", 
        "symbol": "As", 
        "weight": 74.9216
    }, 
    {
        "Heat": 0.321, 
        "abundance (mg/kg)": 0.05, 
        "boiling point (k)": 958, 
        "boiling point (\u00b0C)": 685.0, 
        "density (g/cm3)": 4.79, 
        "discovered": 1817, 
        "earth crust (%)": "", 
        "electrons": "[Ar] 3d10 4s2 4p4", 
        "group": 16, 
        "instock": false, 
        "ionizatin energy (eV)": 9.7524, 
        "melting point (k)": 453, 
        "melting point (\u00b0C)": 217.0, 
        "name": "Selenium", 
        "neg": 2.55, 
        "number": 34, 
        "origin of name": "Moon (with the Greek name selene)", 
        "row": 33, 
        "snippet": "not in stock", 
        "symbol": "Se", 
        "weight": 78.96
    }, 
    {
        "Heat": 0.474, 
        "abundance (mg/kg)": 2.4, 
        "boiling point (k)": 332, 
        "boiling point (\u00b0C)": 59.0, 
        "density (g/cm3)": 3.12, 
        "discovered": 1826, 
        "earth crust (%)": "", 
        "electrons": "[Ar] 3d10 4s2 4p5", 
        "group": 17, 
        "instock": false, 
        "ionizatin energy (eV)": 11.8138, 
        "melting point (k)": 265.8, 
        "melting point (\u00b0C)": -7.0, 
        "name": "Bromine", 
        "neg": 2.96, 
        "number": 35, 
        "origin of name": "the Greek 'bromos' meaning stench", 
        "row": 34, 
        "snippet": "not in stock", 
        "symbol": "Br", 
        "weight": 79.904
    }, 
    {
        "Heat": 0.248, 
        "abundance (mg/kg)": "<0.001", 
        "boiling point (k)": 119.93, 
        "boiling point (\u00b0C)": -153.0, 
        "density (g/cm3)": 3.75, 
        "discovered": 1898, 
        "earth crust (%)": "", 
        "electrons": "[Ar] 3d10 4s2 4p6", 
        "group": 18, 
        "instock": false, 
        "ionizatin energy (eV)": 13.9996, 
        "melting point (k)": 115.79, 
        "melting point (\u00b0C)": -157.0, 
        "name": "Krypton", 
        "neg": 3, 
        "number": 36, 
        "origin of name": "the Greek 'kryptos', meaning hidden", 
        "row": 35, 
        "snippet": "not in stock", 
        "symbol": "Kr", 
        "weight": 83.8
    }, 
    {
        "Heat": 0.363, 
        "abundance (mg/kg)": 90, 
        "boiling point (k)": 961, 
        "boiling point (\u00b0C)": 688.0, 
        "density (g/cm3)": 1.63, 
        "discovered": 1861, 
        "earth crust (%)": "", 
        "electrons": "[Kr] 5s1", 
        "group": 1, 
        "instock": false, 
        "ionizatin energy (eV)": 4.1771, 
        "melting point (k)": 312.46, 
        "melting point (\u00b0C)": 39.0, 
        "name": "Rubidium", 
        "neg": 0.82, 
        "number": 37, 
        "origin of name": "the Latin 'rubidius', meaning deepest red", 
        "row": 36, 
        "snippet": "not in stock", 
        "symbol": "Rb", 
        "weight": 85.4678
    }, 
    {
        "Heat": 0.301, 
        "abundance (mg/kg)": 370, 
        "boiling point (k)": 1655, 
        "boiling point (\u00b0C)": 1384.0, 
        "density (g/cm3)": 2.54, 
        "discovered": 1790, 
        "earth crust (%)": "", 
        "electrons": "[Kr] 5s2", 
        "group": 2, 
        "instock": false, 
        "ionizatin energy (eV)": 5.6949, 
        "melting point (k)": 1050, 
        "melting point (\u00b0C)": 769.0, 
        "name": "Strontium", 
        "neg": 0.95, 
        "number": 38, 
        "origin of name": "Strontian, a small town in Scotland", 
        "row": 37, 
        "snippet": "not in stock", 
        "symbol": "Sr", 
        "weight": 87.62
    }, 
    {
        "Heat": 0.298, 
        "abundance (mg/kg)": 33, 
        "boiling point (k)": 3609, 
        "boiling point (\u00b0C)": 3337.0, 
        "density (g/cm3)": 4.47, 
        "discovered": 1794, 
        "earth crust (%)": "", 
        "electrons": "[Kr] 4d1 5s2", 
        "group": 3, 
        "instock": false, 
        "ionizatin energy (eV)": 6.2173, 
        "melting point (k)": 1799, 
        "melting point (\u00b0C)": 1523.0, 
        "name": "Yttrium", 
        "neg": 1.22, 
        "number": 39, 
        "origin of name": "Ytterby, Sweden", 
        "row": 38, 
        "snippet": "not in stock", 
        "symbol": "Y", 
        "weight": 88.9059
    }, 
    {
        "Heat": 0.278, 
        "abundance (mg/kg)": 165, 
        "boiling point (k)": 4682, 
        "boiling point (\u00b0C)": 4377.0, 
        "density (g/cm3)": 6.51, 
        "discovered": 1789, 
        "earth crust (%)": 0.025, 
        "electrons": "[Kr] 4d2 5s2", 
        "group": 4, 
        "instock": false, 
        "ionizatin energy (eV)": 6.6339, 
        "melting point (k)": 2128, 
        "melting point (\u00b0C)": 1852.0, 
        "name": "Zirconium", 
        "neg": 1.33, 
        "number": 40, 
        "origin of name": "the Arabic 'zargun', meaning gold coloured", 
        "row": 39, 
        "snippet": "not in stock", 
        "symbol": "Zr", 
        "weight": 91.22399999999999
    }, 
    {
        "Heat": 0.265, 
        "abundance (mg/kg)": 20, 
        "boiling point (k)": 5017, 
        "boiling point (\u00b0C)": 4927.0, 
        "density (g/cm3)": 8.57, 
        "discovered": 1801, 
        "earth crust (%)": "", 
        "electrons": "[Kr] 4d4 5s1", 
        "group": 5, 
        "instock": false, 
        "ionizatin energy (eV)": 6.7589, 
        "melting point (k)": 2750, 
        "melting point (\u00b0C)": 2468.0, 
        "name": "Niobium", 
        "neg": 1.6, 
        "number": 41, 
        "origin of name": "Niobe, daughter of king Tantalus from Greek mythology", 
        "row": 40, 
        "snippet": "not in stock", 
        "symbol": "Nb", 
        "weight": 92.9064
    }, 
    {
        "Heat": 0.251, 
        "abundance (mg/kg)": 1.2, 
        "boiling point (k)": 4912, 
        "boiling point (\u00b0C)": 4612.0, 
        "density (g/cm3)": 10.22, 
        "discovered": 1781, 
        "earth crust (%)": "", 
        "electrons": "[Kr] 4d5 5s1", 
        "group": 6, 
        "instock": false, 
        "ionizatin energy (eV)": 7.0924, 
        "melting point (k)": 2896, 
        "melting point (\u00b0C)": 2617.0, 
        "name": "Molybdenum", 
        "neg": 2.16, 
        "number": 42, 
        "origin of name": "the Greek 'molybdos' meaning lead", 
        "row": 41, 
        "snippet": "not in stock", 
        "symbol": "Mo", 
        "weight": 95.94
    }, 
    {
        "Heat": "\u2013", 
        "abundance (mg/kg)": "<0.001", 
        "boiling point (k)": 4538, 
        "boiling point (\u00b0C)": 4877.0, 
        "density (g/cm3)": 11.5, 
        "discovered": 1937, 
        "earth crust (%)": "", 
        "electrons": "[Kr] 4d5 5s2", 
        "group": 7, 
        "instock": false, 
        "ionizatin energy (eV)": 7.28, 
        "melting point (k)": 2430, 
        "melting point (\u00b0C)": 2200.0, 
        "name": "Technetium", 
        "neg": 1.9, 
        "number": 43, 
        "origin of name": "the Greek 'tekhnetos' meaning artificial", 
        "row": 42, 
        "snippet": "not in stock", 
        "symbol": "Tc", 
        "weight": 98.0
    }, 
    {
        "Heat": 0.238, 
        "abundance (mg/kg)": 0.001, 
        "boiling point (k)": 4423, 
        "boiling point (\u00b0C)": 3900.0, 
        "density (g/cm3)": 12.37, 
        "discovered": 1844, 
        "earth crust (%)": "", 
        "electrons": "[Kr] 4d7 5s1", 
        "group": 8, 
        "instock": false, 
        "ionizatin energy (eV)": 7.3605, 
        "melting point (k)": 2607, 
        "melting point (\u00b0C)": 2250.0, 
        "name": "Ruthenium", 
        "neg": 2.2, 
        "number": 44, 
        "origin of name": "Russia (with the Latin name Ruthenia)", 
        "row": 43, 
        "snippet": "not in stock", 
        "symbol": "Ru", 
        "weight": 101.07
    }, 
    {
        "Heat": 0.243, 
        "abundance (mg/kg)": 0.001, 
        "boiling point (k)": 3968, 
        "boiling point (\u00b0C)": 3727.0, 
        "density (g/cm3)": 12.41, 
        "discovered": 1803, 
        "earth crust (%)": "", 
        "electrons": "[Kr] 4d8 5s1", 
        "group": 9, 
        "instock": false, 
        "ionizatin energy (eV)": 7.4589, 
        "melting point (k)": 2237, 
        "melting point (\u00b0C)": 1966.0, 
        "name": "Rhodium", 
        "neg": 2.28, 
        "number": 45, 
        "origin of name": "the Greek 'rhodon', meaning rose coloured", 
        "row": 44, 
        "snippet": "not in stock", 
        "symbol": "Rh", 
        "weight": 102.9055
    }, 
    {
        "Heat": 0.244, 
        "abundance (mg/kg)": 0.015, 
        "boiling point (k)": 3236, 
        "boiling point (\u00b0C)": 2927.0, 
        "density (g/cm3)": 12.02, 
        "discovered": 1803, 
        "earth crust (%)": "", 
        "electrons": "[Kr] 4d10", 
        "group": 10, 
        "instock": false, 
        "ionizatin energy (eV)": 8.3369, 
        "melting point (k)": 1828.05, 
        "melting point (\u00b0C)": 1552.0, 
        "name": "Palladium", 
        "neg": 2.2, 
        "number": 46, 
        "origin of name": "Athena (Pallas Athena), the goddess of wisdom from Greek mythology", 
        "row": 45, 
        "snippet": "not in stock", 
        "symbol": "Pd", 
        "weight": 106.42
    }, 
    {
        "Heat": 0.235, 
        "abundance (mg/kg)": 0.075, 
        "boiling point (k)": 2435, 
        "boiling point (\u00b0C)": 2212.0, 
        "density (g/cm3)": 10.5, 
        "discovered": " ancient", 
        "earth crust (%)": "", 
        "electrons": "[Kr] 4d10 5s1", 
        "group": 11, 
        "instock": false, 
        "ionizatin energy (eV)": 7.5762, 
        "melting point (k)": 1234.93, 
        "melting point (\u00b0C)": 962.0, 
        "name": "Silver", 
        "neg": 1.93, 
        "number": 47, 
        "origin of name": "the Anglo-Saxon name siolfur (argentum in Latin)[2]", 
        "row": 46, 
        "snippet": "not in stock", 
        "symbol": "Ag", 
        "weight": 107.8682
    }, 
    {
        "Heat": 0.232, 
        "abundance (mg/kg)": 0.159, 
        "boiling point (k)": 1040, 
        "boiling point (\u00b0C)": 765.0, 
        "density (g/cm3)": 8.65, 
        "discovered": 1817, 
        "earth crust (%)": "", 
        "electrons": "[Kr] 4d10 5s2", 
        "group": 12, 
        "instock": false, 
        "ionizatin energy (eV)": 8.9938, 
        "melting point (k)": 594.22, 
        "melting point (\u00b0C)": 321.0, 
        "name": "Cadmium", 
        "neg": 1.69, 
        "number": 48, 
        "origin of name": "the Latin name for the mineral calmine, 'cadmia'", 
        "row": 47, 
        "snippet": "not in stock", 
        "symbol": "Cd", 
        "weight": 112.411
    }, 
    {
        "Heat": 0.233, 
        "abundance (mg/kg)": 0.25, 
        "boiling point (k)": 2345, 
        "boiling point (\u00b0C)": 2000.0, 
        "density (g/cm3)": 7.31, 
        "discovered": 1863, 
        "earth crust (%)": "", 
        "electrons": "[Kr] 4d10 5s2 5p1", 
        "group": 13, 
        "instock": false, 
        "ionizatin energy (eV)": 5.7864, 
        "melting point (k)": 429.75, 
        "melting point (\u00b0C)": 157.0, 
        "name": "Indium", 
        "neg": 1.78, 
        "number": 49, 
        "origin of name": "the Latin 'indicium', meaning violet or indigo", 
        "row": 48, 
        "snippet": "not in stock", 
        "symbol": "In", 
        "weight": 114.818
    }, 
    {
        "Heat": 0.228, 
        "abundance (mg/kg)": 2.3, 
        "boiling point (k)": 2875, 
        "boiling point (\u00b0C)": 2270.0, 
        "density (g/cm3)": 7.31, 
        "discovered": " ancient", 
        "earth crust (%)": "", 
        "electrons": "[Kr] 4d10 5s2 5p2", 
        "group": 14, 
        "instock": false, 
        "ionizatin energy (eV)": 7.3439, 
        "melting point (k)": 505.08, 
        "melting point (\u00b0C)": 232.0, 
        "name": "Tin", 
        "neg": 1.96, 
        "number": 50, 
        "origin of name": "the Anglo-Saxon word tin (stannum in Latin, meaning hard)", 
        "row": 49, 
        "snippet": "not in stock", 
        "symbol": "Sn", 
        "weight": 118.71
    }, 
    {
        "Heat": 0.207, 
        "abundance (mg/kg)": 0.2, 
        "boiling point (k)": 1860, 
        "boiling point (\u00b0C)": 1750.0, 
        "density (g/cm3)": 6.68, 
        "discovered": " ancient", 
        "earth crust (%)": "", 
        "electrons": "[Kr] 4d10 5s2 5p3", 
        "group": 15, 
        "instock": false, 
        "ionizatin energy (eV)": 8.6084, 
        "melting point (k)": 903.78, 
        "melting point (\u00b0C)": 630.0, 
        "name": "Antimony", 
        "neg": 2.05, 
        "number": 51, 
        "origin of name": "the Greek 'anti - monos', meaning not alone (stibium in Latin)", 
        "row": 50, 
        "snippet": "not in stock", 
        "symbol": "Sb", 
        "weight": 121.76
    }, 
    {
        "Heat": 0.202, 
        "abundance (mg/kg)": 0.001, 
        "boiling point (k)": 1261, 
        "boiling point (\u00b0C)": 990.0, 
        "density (g/cm3)": 6.24, 
        "discovered": 1783, 
        "earth crust (%)": "", 
        "electrons": "[Kr] 4d10 5s2 5p4", 
        "group": 16, 
        "instock": false, 
        "ionizatin energy (eV)": 9.0096, 
        "melting point (k)": 722.66, 
        "melting point (\u00b0C)": 449.0, 
        "name": "Tellurium", 
        "neg": 2.1, 
        "number": 52, 
        "origin of name": "Earth, the third planet on solar system (with the Latin word tellus)", 
        "row": 51, 
        "snippet": "not in stock", 
        "symbol": "Te", 
        "weight": 127.6
    }, 
    {
        "Heat": 0.214, 
        "abundance (mg/kg)": 0.45, 
        "boiling point (k)": 457.4, 
        "boiling point (\u00b0C)": 184.0, 
        "density (g/cm3)": 4.93, 
        "discovered": 1811, 
        "earth crust (%)": "", 
        "electrons": "[Kr] 4d10 5s2 5p5", 
        "group": 17, 
        "instock": false, 
        "ionizatin energy (eV)": 10.4513, 
        "melting point (k)": 386.85, 
        "melting point (\u00b0C)": 114.0, 
        "name": "Iodine", 
        "neg": 2.66, 
        "number": 53, 
        "origin of name": "the Greek 'iodes' meaning violet", 
        "row": 52, 
        "snippet": "not in stock", 
        "symbol": "I", 
        "weight": 126.9045
    }, 
    {
        "Heat": 0.158, 
        "abundance (mg/kg)": "<0.001", 
        "boiling point (k)": 165.03, 
        "boiling point (\u00b0C)": -108.0, 
        "density (g/cm3)": 5.9, 
        "discovered": 1898, 
        "earth crust (%)": "", 
        "electrons": "[Kr] 4d10 5s2 5p6", 
        "group": 18, 
        "instock": false, 
        "ionizatin energy (eV)": 12.1298, 
        "melting point (k)": 161.4, 
        "melting point (\u00b0C)": -112.0, 
        "name": "Xenon", 
        "neg": 2.6, 
        "number": 54, 
        "origin of name": "the Greek 'xenos' meaning stranger", 
        "row": 53, 
        "snippet": "not in stock", 
        "symbol": "Xe", 
        "weight": 131.293
    }, 
    {
        "Heat": 0.242, 
        "abundance (mg/kg)": 3, 
        "boiling point (k)": 944, 
        "boiling point (\u00b0C)": 678.0, 
        "density (g/cm3)": 1.87, 
        "discovered": 1860, 
        "earth crust (%)": "", 
        "electrons": "[Xe] 6s1", 
        "group": 1, 
        "instock": false, 
        "ionizatin energy (eV)": 3.8939, 
        "melting point (k)": 301.59, 
        "melting point (\u00b0C)": 29.0, 
        "name": "Cesium", 
        "neg": 0.79, 
        "number": 55, 
        "origin of name": "the Latin 'caesius', meaning sky blue", 
        "row": 54, 
        "snippet": "not in stock", 
        "symbol": "Cs", 
        "weight": 132.9055
    }, 
    {
        "Heat": 0.204, 
        "abundance (mg/kg)": 425, 
        "boiling point (k)": 2170, 
        "boiling point (\u00b0C)": 1140.0, 
        "density (g/cm3)": 3.59, 
        "discovered": 1808, 
        "earth crust (%)": 0.05, 
        "electrons": "[Xe] 6s2", 
        "group": 2, 
        "instock": false, 
        "ionizatin energy (eV)": 5.2117, 
        "melting point (k)": 1000, 
        "melting point (\u00b0C)": 725.0, 
        "name": "Barium", 
        "neg": 0.89, 
        "number": 56, 
        "origin of name": "the Greek 'barys', meaning heavy", 
        "row": 55, 
        "snippet": "not in stock", 
        "symbol": "Ba", 
        "weight": 137.327
    }, 
    {
        "Heat": 0.195, 
        "abundance (mg/kg)": 39, 
        "boiling point (k)": 3737, 
        "boiling point (\u00b0C)": 3469.0, 
        "density (g/cm3)": 6.15, 
        "discovered": 1839, 
        "earth crust (%)": "", 
        "electrons": "[Xe] 5d1 6s2", 
        "group": 3, 
        "instock": false, 
        "ionizatin energy (eV)": 5.5769, 
        "melting point (k)": 1193, 
        "melting point (\u00b0C)": 920.0, 
        "name": "Lanthanum", 
        "neg": 1.1, 
        "number": 57, 
        "origin of name": "the Greek 'lanthanein', meaning to lie hidden", 
        "row": 56, 
        "snippet": "not in stock", 
        "symbol": "La", 
        "weight": 138.9055
    }, 
    {
        "Heat": 0.192, 
        "abundance (mg/kg)": 66.5, 
        "boiling point (k)": 3716, 
        "boiling point (\u00b0C)": 3257.0, 
        "density (g/cm3)": 6.77, 
        "discovered": 1803, 
        "earth crust (%)": "", 
        "electrons": "[Xe] 4f1 5d1 6s2", 
        "group": 101, 
        "instock": false, 
        "ionizatin energy (eV)": 5.5387, 
        "melting point (k)": 1068, 
        "melting point (\u00b0C)": 795.0, 
        "name": "Cerium", 
        "neg": 1.12, 
        "number": 58, 
        "origin of name": "Ceres, the Roman God of agriculture", 
        "row": 57, 
        "snippet": "not in stock", 
        "symbol": "Ce", 
        "weight": 140.116
    }, 
    {
        "Heat": 0.193, 
        "abundance (mg/kg)": 9.2, 
        "boiling point (k)": 3793, 
        "boiling point (\u00b0C)": 3127.0, 
        "density (g/cm3)": 6.77, 
        "discovered": 1885, 
        "earth crust (%)": "", 
        "electrons": "[Xe] 4f3 6s2", 
        "group": 101, 
        "instock": false, 
        "ionizatin energy (eV)": 5.473, 
        "melting point (k)": 1208, 
        "melting point (\u00b0C)": 935.0, 
        "name": "Praseodymium", 
        "neg": 1.13, 
        "number": 59, 
        "origin of name": "the Greek 'prasios didymos' meaning green twin", 
        "row": 58, 
        "snippet": "not in stock", 
        "symbol": "Pr", 
        "weight": 140.9077
    }, 
    {
        "Heat": 0.19, 
        "abundance (mg/kg)": 41.5, 
        "boiling point (k)": 3347, 
        "boiling point (\u00b0C)": 3127.0, 
        "density (g/cm3)": 7.01, 
        "discovered": 1885, 
        "earth crust (%)": "", 
        "electrons": "[Xe] 4f4 6s2", 
        "group": 101, 
        "instock": false, 
        "ionizatin energy (eV)": 5.525, 
        "melting point (k)": 1297, 
        "melting point (\u00b0C)": 1010.0, 
        "name": "Neodymium", 
        "neg": 1.14, 
        "number": 60, 
        "origin of name": "the Greek 'neos didymos' meaning new twin", 
        "row": 59, 
        "snippet": "not in stock", 
        "symbol": "Nd", 
        "weight": 144.24
    }, 
    {
        "Heat": "\u2013", 
        "abundance (mg/kg)": "<0.001", 
        "boiling point (k)": 3273, 
        "boiling point (\u00b0C)": 3000.0, 
        "density (g/cm3)": 7.3, 
        "discovered": 1945, 
        "earth crust (%)": "", 
        "electrons": "[Xe] 4f5 6s2", 
        "group": 101, 
        "instock": false, 
        "ionizatin energy (eV)": 5.582000000000001, 
        "melting point (k)": 1315, 
        "melting point (\u00b0C)": 1100.0, 
        "name": "Promethium", 
        "neg": "\u2013", 
        "number": 61, 
        "origin of name": "Prometheus of Greek mythology who stole fire from the Gods and gave it to humans", 
        "row": 60, 
        "snippet": "not in stock", 
        "symbol": "Pm", 
        "weight": 145.0
    }, 
    {
        "Heat": 0.197, 
        "abundance (mg/kg)": 7.05, 
        "boiling point (k)": 2067, 
        "boiling point (\u00b0C)": 1900.0, 
        "density (g/cm3)": 7.52, 
        "discovered": 1879, 
        "earth crust (%)": "", 
        "electrons": "[Xe] 4f6 6s2", 
        "group": 101, 
        "instock": false, 
        "ionizatin energy (eV)": 5.6437, 
        "melting point (k)": 1345, 
        "melting point (\u00b0C)": 1072.0, 
        "name": "Samarium", 
        "neg": 1.17, 
        "number": 62, 
        "origin of name": "Samarskite, the name of the mineral from which it was first isolated", 
        "row": 61, 
        "snippet": "not in stock", 
        "symbol": "Sm", 
        "weight": 150.36
    }, 
    {
        "Heat": 0.182, 
        "abundance (mg/kg)": 2, 
        "boiling point (k)": 1802, 
        "boiling point (\u00b0C)": 1597.0, 
        "density (g/cm3)": 5.24, 
        "discovered": 1901, 
        "earth crust (%)": "", 
        "electrons": "[Xe] 4f7 6s2", 
        "group": 101, 
        "instock": false, 
        "ionizatin energy (eV)": 5.6704, 
        "melting point (k)": 1099, 
        "melting point (\u00b0C)": 822.0, 
        "name": "Europium", 
        "neg": 1.2, 
        "number": 63, 
        "origin of name": "Europe", 
        "row": 62, 
        "snippet": "not in stock", 
        "symbol": "Eu", 
        "weight": 151.964
    }, 
    {
        "Heat": 0.236, 
        "abundance (mg/kg)": 6.2, 
        "boiling point (k)": 3546, 
        "boiling point (\u00b0C)": 3233.0, 
        "density (g/cm3)": 7.9, 
        "discovered": 1880, 
        "earth crust (%)": "", 
        "electrons": "[Xe] 4f7 5d1 6s2", 
        "group": 101, 
        "instock": false, 
        "ionizatin energy (eV)": 6.1501, 
        "melting point (k)": 1585, 
        "melting point (\u00b0C)": 1311.0, 
        "name": "Gadolinium", 
        "neg": 1.2, 
        "number": 64, 
        "origin of name": "Johan Gadolin, chemist, physicist and mineralogist", 
        "row": 63, 
        "snippet": "not in stock", 
        "symbol": "Gd", 
        "weight": 157.25
    }, 
    {
        "Heat": 0.182, 
        "abundance (mg/kg)": 1.2, 
        "boiling point (k)": 3503, 
        "boiling point (\u00b0C)": 3041.0, 
        "density (g/cm3)": 8.23, 
        "discovered": 1843, 
        "earth crust (%)": "", 
        "electrons": "[Xe] 4f9 6s2", 
        "group": 101, 
        "instock": false, 
        "ionizatin energy (eV)": 5.8638, 
        "melting point (k)": 1629, 
        "melting point (\u00b0C)": 1360.0, 
        "name": "Terbium", 
        "neg": 1.2, 
        "number": 65, 
        "origin of name": "Ytterby, Sweden", 
        "row": 64, 
        "snippet": "not in stock", 
        "symbol": "Tb", 
        "weight": 158.9253
    }, 
    {
        "Heat": 0.17, 
        "abundance (mg/kg)": 5.2, 
        "boiling point (k)": 2840, 
        "boiling point (\u00b0C)": 2562.0, 
        "density (g/cm3)": 8.55, 
        "discovered": 1886, 
        "earth crust (%)": "", 
        "electrons": "[Xe] 4f10 6s2", 
        "group": 101, 
        "instock": false, 
        "ionizatin energy (eV)": 5.9389, 
        "melting point (k)": 1680, 
        "melting point (\u00b0C)": 1412.0, 
        "name": "Dysprosium", 
        "neg": 1.22, 
        "number": 66, 
        "origin of name": "the Greek 'dysprositos', meaning hard to get", 
        "row": 65, 
        "snippet": "not in stock", 
        "symbol": "Dy", 
        "weight": 162.5
    }, 
    {
        "Heat": 0.165, 
        "abundance (mg/kg)": 1.3, 
        "boiling point (k)": 2993, 
        "boiling point (\u00b0C)": 2720.0, 
        "density (g/cm3)": 8.8, 
        "discovered": 1867, 
        "earth crust (%)": "", 
        "electrons": "[Xe] 4f11 6s2", 
        "group": 101, 
        "instock": false, 
        "ionizatin energy (eV)": 6.0215, 
        "melting point (k)": 1734, 
        "melting point (\u00b0C)": 1470.0, 
        "name": "Holmium", 
        "neg": 1.23, 
        "number": 67, 
        "origin of name": "Stockholm, Sweden (with the Latin name Holmia)", 
        "row": 66, 
        "snippet": "not in stock", 
        "symbol": "Ho", 
        "weight": 164.9303
    }, 
    {
        "Heat": 0.168, 
        "abundance (mg/kg)": 3.5, 
        "boiling point (k)": 3141, 
        "boiling point (\u00b0C)": 2510.0, 
        "density (g/cm3)": 9.07, 
        "discovered": 1842, 
        "earth crust (%)": "", 
        "electrons": "[Xe] 4f12 6s2", 
        "group": 101, 
        "instock": false, 
        "ionizatin energy (eV)": 6.1077, 
        "melting point (k)": 1802, 
        "melting point (\u00b0C)": 1522.0, 
        "name": "Erbium", 
        "neg": 1.24, 
        "number": 68, 
        "origin of name": "Ytterby, Sweden", 
        "row": 67, 
        "snippet": "not in stock", 
        "symbol": "Er", 
        "weight": 167.25900000000001
    }, 
    {
        "Heat": 0.16, 
        "abundance (mg/kg)": 0.52, 
        "boiling point (k)": 2223, 
        "boiling point (\u00b0C)": 1727.0, 
        "density (g/cm3)": 9.32, 
        "discovered": 1879, 
        "earth crust (%)": "", 
        "electrons": "[Xe] 4f13 6s2", 
        "group": 101, 
        "instock": false, 
        "ionizatin energy (eV)": 6.1843, 
        "melting point (k)": 1818, 
        "melting point (\u00b0C)": 1545.0, 
        "name": "Thulium", 
        "neg": 1.25, 
        "number": 69, 
        "origin of name": "Thule, the ancient name for Scandinavia", 
        "row": 68, 
        "snippet": "not in stock", 
        "symbol": "Tm", 
        "weight": 168.9342
    }, 
    {
        "Heat": 0.155, 
        "abundance (mg/kg)": 3.2, 
        "boiling point (k)": 1469, 
        "boiling point (\u00b0C)": 1466.0, 
        "density (g/cm3)": 6.9, 
        "discovered": 1878, 
        "earth crust (%)": "", 
        "electrons": "[Xe] 4f14 6s2", 
        "group": 101, 
        "instock": false, 
        "ionizatin energy (eV)": 6.2542, 
        "melting point (k)": 1097, 
        "melting point (\u00b0C)": 824.0, 
        "name": "Ytterbium", 
        "neg": 1.1, 
        "number": 70, 
        "origin of name": "Ytterby, Sweden", 
        "row": 69, 
        "snippet": "not in stock", 
        "symbol": "Yb", 
        "weight": 173.04
    }, 
    {
        "Heat": 0.154, 
        "abundance (mg/kg)": 0.8, 
        "boiling point (k)": 3675, 
        "boiling point (\u00b0C)": 3315.0, 
        "density (g/cm3)": 9.84, 
        "discovered": 1907, 
        "earth crust (%)": "", 
        "electrons": "[Xe] 4f14 5d1 6s2", 
        "group": 101, 
        "instock": false, 
        "ionizatin energy (eV)": 5.4259, 
        "melting point (k)": 1925, 
        "melting point (\u00b0C)": 1656.0, 
        "name": "Lutetium", 
        "neg": 1.27, 
        "number": 71, 
        "origin of name": "Paris, France (with the Roman name Lutetia)", 
        "row": 70, 
        "snippet": "not in stock", 
        "symbol": "Lu", 
        "weight": 174.967
    }, 
    {
        "Heat": 0.144, 
        "abundance (mg/kg)": 3, 
        "boiling point (k)": 4876, 
        "boiling point (\u00b0C)": 5400.0, 
        "density (g/cm3)": 13.31, 
        "discovered": 1923, 
        "earth crust (%)": "", 
        "electrons": "[Xe] 4f14 5d2 6s2", 
        "group": 4, 
        "instock": false, 
        "ionizatin energy (eV)": 6.8251, 
        "melting point (k)": 2506, 
        "melting point (\u00b0C)": 2150.0, 
        "name": "Hafnium", 
        "neg": 1.3, 
        "number": 72, 
        "origin of name": "Copenhagen, Denmark (with the Latin name Hafnia)", 
        "row": 71, 
        "snippet": "not in stock", 
        "symbol": "Hf", 
        "weight": 178.49
    }, 
    {
        "Heat": 0.14, 
        "abundance (mg/kg)": 2, 
        "boiling point (k)": 5731, 
        "boiling point (\u00b0C)": 5425.0, 
        "density (g/cm3)": 16.65, 
        "discovered": 1802, 
        "earth crust (%)": "", 
        "electrons": "[Xe] 4f14 5d3 6s2", 
        "group": 5, 
        "instock": false, 
        "ionizatin energy (eV)": 7.5496, 
        "melting point (k)": 3290, 
        "melting point (\u00b0C)": 2996.0, 
        "name": "Tantalum", 
        "neg": 1.5, 
        "number": 73, 
        "origin of name": "King Tantalus, father of Niobe from Greek mythology", 
        "row": 72, 
        "snippet": "not in stock", 
        "symbol": "Ta", 
        "weight": 180.9479
    }, 
    {
        "Heat": 0.132, 
        "abundance (mg/kg)": 1.3, 
        "boiling point (k)": 5828, 
        "boiling point (\u00b0C)": 5660.0, 
        "density (g/cm3)": 19.35, 
        "discovered": 1783, 
        "earth crust (%)": "", 
        "electrons": "[Xe] 4f14 5d4 6s2", 
        "group": 6, 
        "instock": false, 
        "ionizatin energy (eV)": 7.864, 
        "melting point (k)": 3695, 
        "melting point (\u00b0C)": 3410.0, 
        "name": "Tungsten", 
        "neg": 2.36, 
        "number": 74, 
        "origin of name": "the Swedish 'tung sten' meaning heavy stone (W is wolfram, the old name of the tungsten mineral wolframite)[2]", 
        "row": 73, 
        "snippet": "not in stock", 
        "symbol": "W", 
        "weight": 183.84
    }, 
    {
        "Heat": 0.137, 
        "abundance (mg/kg)": "<0.001", 
        "boiling point (k)": 5869, 
        "boiling point (\u00b0C)": 5627.0, 
        "density (g/cm3)": 21.04, 
        "discovered": 1925, 
        "earth crust (%)": "", 
        "electrons": "[Xe] 4f14 5d5 6s2", 
        "group": 7, 
        "instock": false, 
        "ionizatin energy (eV)": 7.8335, 
        "melting point (k)": 3459, 
        "melting point (\u00b0C)": 3180.0, 
        "name": "Rhenium", 
        "neg": 1.9, 
        "number": 75, 
        "origin of name": "Rhine, a river that flows from Grisons in the eastern Swiss Alps to the North Sea coast in the Netherlands (with the Latin name Rhenia)", 
        "row": 74, 
        "snippet": "not in stock", 
        "symbol": "Re", 
        "weight": 186.207
    }, 
    {
        "Heat": 0.13, 
        "abundance (mg/kg)": 0.002, 
        "boiling point (k)": 5285, 
        "boiling point (\u00b0C)": 5027.0, 
        "density (g/cm3)": 22.6, 
        "discovered": 1803, 
        "earth crust (%)": "", 
        "electrons": "[Xe] 4f14 5d6 6s2", 
        "group": 8, 
        "instock": false, 
        "ionizatin energy (eV)": 8.4382, 
        "melting point (k)": 3306, 
        "melting point (\u00b0C)": 3045.0, 
        "name": "Osmium", 
        "neg": 2.2, 
        "number": 76, 
        "origin of name": "the Greek 'osme', meaning smell", 
        "row": 75, 
        "snippet": "not in stock", 
        "symbol": "Os", 
        "weight": 190.23
    }, 
    {
        "Heat": 0.131, 
        "abundance (mg/kg)": 0.001, 
        "boiling point (k)": 4701, 
        "boiling point (\u00b0C)": 4527.0, 
        "density (g/cm3)": 22.4, 
        "discovered": 1803, 
        "earth crust (%)": "", 
        "electrons": "[Xe] 4f14 5d7 6s2", 
        "group": 9, 
        "instock": false, 
        "ionizatin energy (eV)": 8.967, 
        "melting point (k)": 2719, 
        "melting point (\u00b0C)": 2410.0, 
        "name": "Iridium", 
        "neg": 2.2, 
        "number": 77, 
        "origin of name": "Iris, the Greek goddess of the rainbow", 
        "row": 76, 
        "snippet": "not in stock", 
        "symbol": "Ir", 
        "weight": 192.217
    }, 
    {
        "Heat": 0.133, 
        "abundance (mg/kg)": 0.005, 
        "boiling point (k)": 4098, 
        "boiling point (\u00b0C)": 3827.0, 
        "density (g/cm3)": 21.45, 
        "discovered": 1735, 
        "earth crust (%)": "", 
        "electrons": "[Xe] 4f14 5d9 6s1", 
        "group": 10, 
        "instock": false, 
        "ionizatin energy (eV)": 8.9587, 
        "melting point (k)": 2041.4, 
        "melting point (\u00b0C)": 1772.0, 
        "name": "Platinum", 
        "neg": 2.28, 
        "number": 78, 
        "origin of name": "the Spanish 'platina', meaning little silver", 
        "row": 77, 
        "snippet": "not in stock", 
        "symbol": "Pt", 
        "weight": 195.078
    }, 
    {
        "Heat": 0.129, 
        "abundance (mg/kg)": 0.004, 
        "boiling point (k)": 3129, 
        "boiling point (\u00b0C)": 2807.0, 
        "density (g/cm3)": 19.32, 
        "discovered": " ancient", 
        "earth crust (%)": "", 
        "electrons": "[Xe] 4f14 5d10 6s1", 
        "group": 11, 
        "instock": false, 
        "ionizatin energy (eV)": 9.2255, 
        "melting point (k)": 1337.33, 
        "melting point (\u00b0C)": 1064.0, 
        "name": "Gold", 
        "neg": 2.54, 
        "number": 79, 
        "origin of name": "the Anglo-Saxon word gold, from Latin geolo, meaning yellow (aurum in Latin, meaning glow of sunrise)[2]", 
        "row": 78, 
        "snippet": "not in stock", 
        "symbol": "Au", 
        "weight": 196.9665
    }, 
    {
        "Heat": 0.14, 
        "abundance (mg/kg)": 0.085, 
        "boiling point (k)": 629.88, 
        "boiling point (\u00b0C)": 357.0, 
        "density (g/cm3)": 13.55, 
        "discovered": " ancient", 
        "earth crust (%)": "", 
        "electrons": "[Xe] 4f14 5d10 6s2", 
        "group": 12, 
        "instock": false, 
        "ionizatin energy (eV)": 10.4375, 
        "melting point (k)": 234.43, 
        "melting point (\u00b0C)": -39.0, 
        "name": "Mercury", 
        "neg": 2, 
        "number": 80, 
        "origin of name": "Mercury, the first planet in the Solar System (Hg from former name hydrargyrum, from Greek hydr- water and argyros silver)", 
        "row": 79, 
        "snippet": "not in stock", 
        "symbol": "Hg", 
        "weight": 200.59
    }, 
    {
        "Heat": 0.129, 
        "abundance (mg/kg)": 0.85, 
        "boiling point (k)": 1746, 
        "boiling point (\u00b0C)": 1457.0, 
        "density (g/cm3)": 11.85, 
        "discovered": 1861, 
        "earth crust (%)": "", 
        "electrons": "[Xe] 4f14 5d10 6s2 6p1", 
        "group": 13, 
        "instock": false, 
        "ionizatin energy (eV)": 6.1082, 
        "melting point (k)": 577, 
        "melting point (\u00b0C)": 303.0, 
        "name": "Thallium", 
        "neg": 1.62, 
        "number": 81, 
        "origin of name": "the Greek 'thallos', meaning a green twig", 
        "row": 80, 
        "snippet": "not in stock", 
        "symbol": "Tl", 
        "weight": 204.3833
    }, 
    {
        "Heat": 0.129, 
        "abundance (mg/kg)": 14, 
        "boiling point (k)": 2022, 
        "boiling point (\u00b0C)": 1740.0, 
        "density (g/cm3)": 11.35, 
        "discovered": " ancient", 
        "earth crust (%)": "", 
        "electrons": "[Xe] 4f14 5d10 6s2 6p2", 
        "group": 14, 
        "instock": false, 
        "ionizatin energy (eV)": 7.4167, 
        "melting point (k)": 600.61, 
        "melting point (\u00b0C)": 327.0, 
        "name": "Lead", 
        "neg": 2.33, 
        "number": 82, 
        "origin of name": "the Anglo-Saxon lead (plumbum in Latin)[2]", 
        "row": 81, 
        "snippet": "not in stock", 
        "symbol": "Pb", 
        "weight": 207.2
    }, 
    {
        "Heat": 0.122, 
        "abundance (mg/kg)": 0.009, 
        "boiling point (k)": 1837, 
        "boiling point (\u00b0C)": 1560.0, 
        "density (g/cm3)": 9.75, 
        "discovered": " ancient", 
        "earth crust (%)": "", 
        "electrons": "[Xe] 4f14 5d10 6s2 6p3", 
        "group": 15, 
        "instock": false, 
        "ionizatin energy (eV)": 7.2856, 
        "melting point (k)": 544.7, 
        "melting point (\u00b0C)": 271.0, 
        "name": "Bismuth", 
        "neg": 2.02, 
        "number": 83, 
        "origin of name": "the German 'Bisemutum' a corruption of 'Weisse Masse' meaning white mass", 
        "row": 82, 
        "snippet": "not in stock", 
        "symbol": "Bi", 
        "weight": 208.9804
    }, 
    {
        "Heat": "\u2013", 
        "abundance (mg/kg)": "<0.001", 
        "boiling point (k)": 1235, 
        "boiling point (\u00b0C)": 962.0, 
        "density (g/cm3)": 9.3, 
        "discovered": 1898, 
        "earth crust (%)": "", 
        "electrons": "[Xe] 4f14 5d10 6s2 6p4", 
        "group": 16, 
        "instock": false, 
        "ionizatin energy (eV)": 8.417, 
        "melting point (k)": 527, 
        "melting point (\u00b0C)": 254.0, 
        "name": "Polonium", 
        "neg": 2, 
        "number": 84, 
        "origin of name": "Poland, the native country of Marie Curie, who first isolated the element", 
        "row": 83, 
        "snippet": "not in stock", 
        "symbol": "Po", 
        "weight": 209.0
    }, 
    {
        "Heat": "\u2013", 
        "abundance (mg/kg)": "<0.001", 
        "boiling point (k)": 610, 
        "boiling point (\u00b0C)": 337.0, 
        "density (g/cm3)": "", 
        "discovered": 1940, 
        "earth crust (%)": "", 
        "electrons": "[Xe] 4f14 5d10 6s2 6p5", 
        "group": 17, 
        "instock": false, 
        "ionizatin energy (eV)": 9.3, 
        "melting point (k)": 575, 
        "melting point (\u00b0C)": 302.0, 
        "name": "Astatine", 
        "neg": 2.2, 
        "number": 85, 
        "origin of name": "the Greek 'astatos', meaning unstable", 
        "row": 84, 
        "snippet": "not in stock", 
        "symbol": "At", 
        "weight": 210.0
    }, 
    {
        "Heat": 0.094, 
        "abundance (mg/kg)": "<0.001", 
        "boiling point (k)": 211.3, 
        "boiling point (\u00b0C)": -62.0, 
        "density (g/cm3)": 9.73, 
        "discovered": 1900, 
        "earth crust (%)": "", 
        "electrons": "[Xe] 4f14 5d10 6s2 6p6", 
        "group": 18, 
        "instock": false, 
        "ionizatin energy (eV)": 10.7485, 
        "melting point (k)": 202, 
        "melting point (\u00b0C)": -71.0, 
        "name": "Radon", 
        "neg": "\u2013", 
        "number": 86, 
        "origin of name": "From radium, as it was first detected as an emission from radium during radioactive decay", 
        "row": 85, 
        "snippet": "not in stock", 
        "symbol": "Rn", 
        "weight": 222.0
    }, 
    {
        "Heat": "\u2013", 
        "abundance (mg/kg)": "<0.001", 
        "boiling point (k)": 950, 
        "boiling point (\u00b0C)": 677.0, 
        "density (g/cm3)": "", 
        "discovered": 1939, 
        "earth crust (%)": "", 
        "electrons": "[Rn] 7s1", 
        "group": 1, 
        "instock": false, 
        "ionizatin energy (eV)": 4.0727, 
        "melting point (k)": 300, 
        "melting point (\u00b0C)": 27.0, 
        "name": "Francium", 
        "neg": 0.7, 
        "number": 87, 
        "origin of name": "France", 
        "row": 86, 
        "snippet": "not in stock", 
        "symbol": "Fr", 
        "weight": 223.0
    }, 
    {
        "Heat": "\u2013", 
        "abundance (mg/kg)": "<0.001", 
        "boiling point (k)": 2010, 
        "boiling point (\u00b0C)": 1737.0, 
        "density (g/cm3)": 5.5, 
        "discovered": 1898, 
        "earth crust (%)": "", 
        "electrons": "[Rn] 7s2", 
        "group": 2, 
        "instock": false, 
        "ionizatin energy (eV)": 5.2784, 
        "melting point (k)": 973, 
        "melting point (\u00b0C)": 700.0, 
        "name": "Radium", 
        "neg": 0.9, 
        "number": 88, 
        "origin of name": "the Latin 'radius', meaning ray", 
        "row": 87, 
        "snippet": "not in stock", 
        "symbol": "Ra", 
        "weight": 226.0
    }, 
    {
        "Heat": 0.12, 
        "abundance (mg/kg)": "<0.001", 
        "boiling point (k)": 3471, 
        "boiling point (\u00b0C)": 3200.0, 
        "density (g/cm3)": 10.07, 
        "discovered": 1899, 
        "earth crust (%)": "", 
        "electrons": "[Rn] 6d1 7s2", 
        "group": 3, 
        "instock": false, 
        "ionizatin energy (eV)": 5.17, 
        "melting point (k)": 1323, 
        "melting point (\u00b0C)": 1050.0, 
        "name": "Actinium", 
        "neg": 1.1, 
        "number": 89, 
        "origin of name": "the Greek 'actinos', meaning a ray", 
        "row": 88, 
        "snippet": "not in stock", 
        "symbol": "Ac", 
        "weight": 227.0
    }, 
    {
        "Heat": 0.113, 
        "abundance (mg/kg)": 9.6, 
        "boiling point (k)": 5061, 
        "boiling point (\u00b0C)": 4790.0, 
        "density (g/cm3)": 11.72, 
        "discovered": 1829, 
        "earth crust (%)": "", 
        "electrons": "[Rn] 6d2 7s2", 
        "group": 102, 
        "instock": false, 
        "ionizatin energy (eV)": 6.3067, 
        "melting point (k)": 2115, 
        "melting point (\u00b0C)": 1750.0, 
        "name": "Thorium", 
        "neg": 1.3, 
        "number": 90, 
        "origin of name": "Thor, the Scandinavian god of thunder", 
        "row": 89, 
        "snippet": "not in stock", 
        "symbol": "Th", 
        "weight": 232.0381
    }, 
    {
        "Heat": "\u2013", 
        "abundance (mg/kg)": "<0.001", 
        "boiling point (k)": 4300, 
        "boiling point (\u00b0C)": "", 
        "density (g/cm3)": 15.4, 
        "discovered": 1913, 
        "earth crust (%)": "", 
        "electrons": "[Rn] 5f2 6d1 7s2", 
        "group": 102, 
        "instock": false, 
        "ionizatin energy (eV)": 5.89, 
        "melting point (k)": 1841, 
        "melting point (\u00b0C)": 1568.0, 
        "name": "Protactinium", 
        "neg": 1.5, 
        "number": 91, 
        "origin of name": "the Greek 'protos', meaning first, as a prefix to the element actinium, which is produced through the radioactive decay of protactinium", 
        "row": 90, 
        "snippet": "not in stock", 
        "symbol": "Pa", 
        "weight": 231.0359
    }, 
    {
        "Heat": 0.116, 
        "abundance (mg/kg)": 2.7, 
        "boiling point (k)": 4404, 
        "boiling point (\u00b0C)": 3818.0, 
        "density (g/cm3)": 18.95, 
        "discovered": 1789, 
        "earth crust (%)": "", 
        "electrons": "[Rn] 5f3 6d1 7s2", 
        "group": 102, 
        "instock": false, 
        "ionizatin energy (eV)": 6.1941, 
        "melting point (k)": 1405.3, 
        "melting point (\u00b0C)": 1132.0, 
        "name": "Uranium", 
        "neg": 1.38, 
        "number": 92, 
        "origin of name": "Uranus, the seventh planet in the Solar System", 
        "row": 91, 
        "snippet": "not in stock", 
        "symbol": "U", 
        "weight": 238.0289
    }, 
    {
        "Heat": "\u2013", 
        "abundance (mg/kg)": "<0.001", 
        "boiling point (k)": 4273, 
        "boiling point (\u00b0C)": 3902.0, 
        "density (g/cm3)": 20.2, 
        "discovered": 1940, 
        "earth crust (%)": "", 
        "electrons": "[Rn] 5f4 6d1 7s2", 
        "group": 102, 
        "instock": false, 
        "ionizatin energy (eV)": 6.2657, 
        "melting point (k)": 917, 
        "melting point (\u00b0C)": 640.0, 
        "name": "Neptunium", 
        "neg": 1.36, 
        "number": 93, 
        "origin of name": "Neptune, the eighth planet in the Solar System", 
        "row": 92, 
        "snippet": "not in stock", 
        "symbol": "Np", 
        "weight": 237.0
    }, 
    {
        "Heat": "\u2013", 
        "abundance (mg/kg)": "<0.001", 
        "boiling point (k)": 3501, 
        "boiling point (\u00b0C)": 3235.0, 
        "density (g/cm3)": 19.84, 
        "discovered": 1940, 
        "earth crust (%)": "", 
        "electrons": "[Rn] 5f6 7s2", 
        "group": 102, 
        "instock": false, 
        "ionizatin energy (eV)": 6.0262, 
        "melting point (k)": 912.5, 
        "melting point (\u00b0C)": 640.0, 
        "name": "Plutonium", 
        "neg": 1.28, 
        "number": 94, 
        "origin of name": "Pluto, a dwarf planet in the Solar System", 
        "row": 93, 
        "snippet": "not in stock", 
        "symbol": "Pu", 
        "weight": 244.0
    }, 
    {
        "Heat": "\u2013", 
        "abundance (mg/kg)": "<0.001", 
        "boiling point (k)": 2880, 
        "boiling point (\u00b0C)": 2607.0, 
        "density (g/cm3)": 13.67, 
        "discovered": 1944, 
        "earth crust (%)": "", 
        "electrons": "[Rn] 5f7 7s2", 
        "group": 102, 
        "instock": false, 
        "ionizatin energy (eV)": 5.9738, 
        "melting point (k)": 1449, 
        "melting point (\u00b0C)": 994.0, 
        "name": "Americium", 
        "neg": 1.3, 
        "number": 95, 
        "origin of name": "Americas, the continent where the element was first synthesized", 
        "row": 94, 
        "snippet": "not in stock", 
        "symbol": "Am", 
        "weight": 243.0
    }, 
    {
        "Heat": "\u2013", 
        "abundance (mg/kg)": "<0.001", 
        "boiling point (k)": 3383, 
        "boiling point (\u00b0C)": "", 
        "density (g/cm3)": 13.5, 
        "discovered": 1944, 
        "earth crust (%)": "", 
        "electrons": "", 
        "group": 102, 
        "instock": false, 
        "ionizatin energy (eV)": 5.9915, 
        "melting point (k)": 1613, 
        "melting point (\u00b0C)": 1340.0, 
        "name": "Curium", 
        "neg": 1.3, 
        "number": 96, 
        "origin of name": "Pierre Curie, a physicist, and Marie Curie, a physicist and chemist", 
        "row": 95, 
        "snippet": "not in stock", 
        "symbol": "Cm", 
        "weight": 247.0
    }, 
    {
        "Heat": "\u2013", 
        "abundance (mg/kg)": "<0.001", 
        "boiling point (k)": "-", 
        "boiling point (\u00b0C)": "", 
        "density (g/cm3)": 14.78, 
        "discovered": 1949, 
        "earth crust (%)": "", 
        "electrons": "", 
        "group": 102, 
        "instock": false, 
        "ionizatin energy (eV)": 6.1979, 
        "melting point (k)": 1259, 
        "melting point (\u00b0C)": 986.0, 
        "name": "Berkelium", 
        "neg": 1.3, 
        "number": 97, 
        "origin of name": "Berkeley, California, USA, where the element was first synthesized", 
        "row": 96, 
        "snippet": "not in stock", 
        "symbol": "Bk", 
        "weight": 247.0
    }, 
    {
        "Heat": "\u2013", 
        "abundance (mg/kg)": "<0.001", 
        "boiling point (k)": "-", 
        "boiling point (\u00b0C)": "", 
        "density (g/cm3)": 15.1, 
        "discovered": 1950, 
        "earth crust (%)": "", 
        "electrons": "", 
        "group": 102, 
        "instock": false, 
        "ionizatin energy (eV)": 6.2817, 
        "melting point (k)": 1173, 
        "melting point (\u00b0C)": 900.0, 
        "name": "Californium", 
        "neg": 1.3, 
        "number": 98, 
        "origin of name": "State of California, USA, where the element was first synthesized", 
        "row": 97, 
        "snippet": "not in stock", 
        "symbol": "Cf", 
        "weight": 251.0
    }, 
    {
        "Heat": "\u2013", 
        "abundance (mg/kg)": "0 8", 
        "boiling point (k)": "\u2013", 
        "boiling point (\u00b0C)": "", 
        "density (g/cm3)": "", 
        "discovered": 1952, 
        "earth crust (%)": "", 
        "electrons": "", 
        "group": 102, 
        "instock": false, 
        "ionizatin energy (eV)": 6.42, 
        "melting point (k)": 1133, 
        "melting point (\u00b0C)": 860.0, 
        "name": "Einsteinium", 
        "neg": 1.3, 
        "number": 99, 
        "origin of name": "Albert Einstein, physicist", 
        "row": 98, 
        "snippet": "not in stock", 
        "symbol": "Es", 
        "weight": 252.0
    }, 
    {
        "Heat": "\u2013", 
        "abundance (mg/kg)": "0 8", 
        "boiling point (k)": "\u2013", 
        "boiling point (\u00b0C)": "", 
        "density (g/cm3)": "", 
        "discovered": 1952, 
        "earth crust (%)": "", 
        "electrons": "", 
        "group": 102, 
        "instock": false, 
        "ionizatin energy (eV)": 6.5, 
        "melting point (k)": 1800, 
        "melting point (\u00b0C)": 1527.0, 
        "name": "Fermium", 
        "neg": 1.3, 
        "number": 100, 
        "origin of name": "Enrico Fermi, physicist", 
        "row": 99, 
        "snippet": "not in stock", 
        "symbol": "Fm", 
        "weight": 257.0
    }, 
    {
        "Heat": "\u2013", 
        "abundance (mg/kg)": "0 8", 
        "boiling point (k)": "\u2013", 
        "boiling point (\u00b0C)": "", 
        "density (g/cm3)": "", 
        "discovered": 1955, 
        "earth crust (%)": "", 
        "electrons": "", 
        "group": 102, 
        "instock": false, 
        "ionizatin energy (eV)": 6.58, 
        "melting point (k)": 1100, 
        "melting point (\u00b0C)": "", 
        "name": "Mendelevium", 
        "neg": 1.3, 
        "number": 101, 
        "origin of name": "Dmitri Mendeleyev, chemist and inventor", 
        "row": 100, 
        "snippet": "not in stock", 
        "symbol": "Md", 
        "weight": 258.0
    }, 
    {
        "Heat": "\u2013", 
        "abundance (mg/kg)": "0 8", 
        "boiling point (k)": "\u2013", 
        "boiling point (\u00b0C)": "", 
        "density (g/cm3)": "", 
        "discovered": 1958, 
        "earth crust (%)": "", 
        "electrons": "", 
        "group": 102, 
        "instock": false, 
        "ionizatin energy (eV)": 6.65, 
        "melting point (k)": 1100, 
        "melting point (\u00b0C)": 827.0, 
        "name": "Nobelium", 
        "neg": 1.3, 
        "number": 102, 
        "origin of name": "Alfred Nobel, chemist, engineer, innovator, and armaments manufacturer", 
        "row": 101, 
        "snippet": "not in stock", 
        "symbol": "No", 
        "weight": 259.0
    }, 
    {
        "Heat": "\u2013", 
        "abundance (mg/kg)": "0 8", 
        "boiling point (k)": "\u2013", 
        "boiling point (\u00b0C)": "", 
        "density (g/cm3)": "", 
        "discovered": 1961, 
        "earth crust (%)": "", 
        "electrons": "", 
        "group": 102, 
        "instock": false, 
        "ionizatin energy (eV)": 4.9, 
        "melting point (k)": 1900, 
        "melting point (\u00b0C)": 1627.0, 
        "name": "Lawrencium", 
        "neg": 1.3, 
        "number": 103, 
        "origin of name": "Ernest O. Lawrence, physicist", 
        "row": 102, 
        "snippet": "not in stock", 
        "symbol": "Lr", 
        "weight": 262.0
    }, 
    {
        "Heat": "\u2013", 
        "abundance (mg/kg)": "0 8", 
        "boiling point (k)": "\u2013", 
        "boiling point (\u00b0C)": "", 
        "density (g/cm3)": "", 
        "discovered": 1964, 
        "earth crust (%)": "", 
        "electrons": "", 
        "group": 4, 
        "instock": false, 
        "ionizatin energy (eV)": "", 
        "melting point (k)": "\u2013", 
        "melting point (\u00b0C)": "", 
        "name": "Rutherfordium", 
        "neg": "\u2013", 
        "number": 104, 
        "origin of name": "Ernest Rutherford, chemist and physicist", 
        "row": 103, 
        "snippet": "not in stock", 
        "symbol": "Rf", 
        "weight": 261.0
    }, 
    {
        "Heat": "\u2013", 
        "abundance (mg/kg)": "0 8", 
        "boiling point (k)": "\u2013", 
        "boiling point (\u00b0C)": "", 
        "density (g/cm3)": "", 
        "discovered": 1967, 
        "earth crust (%)": "", 
        "electrons": "", 
        "group": 5, 
        "instock": false, 
        "ionizatin energy (eV)": "", 
        "melting point (k)": "\u2013", 
        "melting point (\u00b0C)": "", 
        "name": "Dubnium", 
        "neg": "\u2013", 
        "number": 105, 
        "origin of name": "Dubna, Russia", 
        "row": 104, 
        "snippet": "not in stock", 
        "symbol": "Db", 
        "weight": 262.0
    }, 
    {
        "Heat": "\u2013", 
        "abundance (mg/kg)": "0 8", 
        "boiling point (k)": "\u2013", 
        "boiling point (\u00b0C)": "", 
        "density (g/cm3)": "", 
        "discovered": 1974, 
        "earth crust (%)": "", 
        "electrons": "", 
        "group": 6, 
        "instock": false, 
        "ionizatin energy (eV)": "", 
        "melting point (k)": "\u2013", 
        "melting point (\u00b0C)": "", 
        "name": "Seaborgium", 
        "neg": "\u2013", 
        "number": 106, 
        "origin of name": "Glenn T. Seaborg, scientist", 
        "row": 105, 
        "snippet": "not in stock", 
        "symbol": "Sg", 
        "weight": 266.0
    }, 
    {
        "Heat": "\u2013", 
        "abundance (mg/kg)": "0 8", 
        "boiling point (k)": "\u2013", 
        "boiling point (\u00b0C)": "", 
        "density (g/cm3)": "", 
        "discovered": 1981, 
        "earth crust (%)": "", 
        "electrons": "", 
        "group": 7, 
        "instock": false, 
        "ionizatin energy (eV)": "", 
        "melting point (k)": "\u2013", 
        "melting point (\u00b0C)": "", 
        "name": "Bohrium", 
        "neg": "\u2013", 
        "number": 107, 
        "origin of name": "Niels Bohr, physicist", 
        "row": 106, 
        "snippet": "not in stock", 
        "symbol": "Bh", 
        "weight": 264.0
    }, 
    {
        "Heat": "\u2013", 
        "abundance (mg/kg)": "0 8", 
        "boiling point (k)": "\u2013", 
        "boiling point (\u00b0C)": "", 
        "density (g/cm3)": "", 
        "discovered": 1984, 
        "earth crust (%)": "", 
        "electrons": "", 
        "group": 8, 
        "instock": false, 
        "ionizatin energy (eV)": "", 
        "melting point (k)": "\u2013", 
        "melting point (\u00b0C)": "", 
        "name": "Hassium", 
        "neg": "\u2013", 
        "number": 108, 
        "origin of name": "Hesse, Germany, where the element was first synthesized", 
        "row": 107, 
        "snippet": "not in stock", 
        "symbol": "Hs", 
        "weight": 277.0
    }, 
    {
        "Heat": "\u2013", 
        "abundance (mg/kg)": "0 8", 
        "boiling point (k)": "\u2013", 
        "boiling point (\u00b0C)": "", 
        "density (g/cm3)": "", 
        "discovered": 1982, 
        "earth crust (%)": "", 
        "electrons": "", 
        "group": 9, 
        "instock": false, 
        "ionizatin energy (eV)": "", 
        "melting point (k)": "\u2013", 
        "melting point (\u00b0C)": "", 
        "name": "Meitnerium", 
        "neg": "\u2013", 
        "number": 109, 
        "origin of name": "Lise Meitner, physicist", 
        "row": 108, 
        "snippet": "not in stock", 
        "symbol": "Mt", 
        "weight": 268.0
    }
]
